[
  {
    "submittalPackageId": "0b9b7168-2f76-4ddb-8a5a-af56a37acfea",
    "projectId": "3fd8e539-0be9-4706-a8a2-6b057fbea2dd",
    "name": "Designer Wood work",
    "description": null,
    "number": "3-06 40 00-0",
    "revisionNumber": 0,
    "isMostRecentRevision": true,
    "trade": "ARCHITECTURAL WOODWORK",
    "status": null,
    "dateCreated": "2020-02-27T22:48:28.343",
    "createdById": "1d98f182-28b6-4f5c-83ed-c488c834a67d",
    "csiCode": "06 40 00",
    "lastModifiedById": "1d98f182-28b6-4f5c-83ed-c488c834a67d",
    "submittalCoordinatorId": null,
    "submittalCoordinator": null,
    "heldBy": "Jedd I Knight",
    "mostRecentSubmittalPackageId": "0b9b7168-2f76-4ddb-8a5a-af56a37acfea",
    "lastModifiedDate": "2020-02-27T22:48:28.343",
    "mostRecentComment": null
  },
  {
    "submittalPackageId": "cbf2988f-b689-426f-a462-37d4716ddb9b",
    "projectId": "3fd8e539-0be9-4706-a8a2-6b057fbea2dd",
    "name": "Joist and Decking Shop Drawings",
    "description": null,
    "number": "1-05 20 00-0",
    "revisionNumber": 0,
    "isMostRecentRevision": true,
    "trade": "METAL JOISTS",
    "status": null,
    "dateCreated": "2020-04-20T15:42:01.973",
    "createdById": "047f8cba-1d43-4b74-a87e-d959176e6391",
    "csiCode": "05 20 00",
    "lastModifiedById": "047f8cba-1d43-4b74-a87e-d959176e6391",
    "submittalCoordinatorId": null,
    "submittalCoordinator": null,
    "heldBy": "Submittal Coordinator, Thornton Melon",
    "mostRecentSubmittalPackageId": "cbf2988f-b689-426f-a462-37d4716ddb9b",
    "lastModifiedDate": "2020-04-20T15:42:01.973",
    "mostRecentComment": null
  },
  {
    "submittalPackageId": "d8ed5b01-3640-4705-bf33-845e03d0643a",
    "projectId": "3fd8e539-0be9-4706-a8a2-6b057fbea2dd",
    "name": "Mix, Formwork, & Precast",
    "description": null,
    "number": "2-03 00 00-0",
    "revisionNumber": 0,
    "isMostRecentRevision": true,
    "trade": "CONCRETE",
    "status": null,
    "dateCreated": "2020-04-20T15:45:02.607",
    "createdById": "047f8cba-1d43-4b74-a87e-d959176e6391",
    "csiCode": "03 00 00",
    "lastModifiedById": "047f8cba-1d43-4b74-a87e-d959176e6391",
    "submittalCoordinatorId": null,
    "submittalCoordinator": null,
    "heldBy": "D G",
    "mostRecentSubmittalPackageId": "d8ed5b01-3640-4705-bf33-845e03d0643a",
    "lastModifiedDate": "2020-04-20T15:45:02.607",
    "mostRecentComment": null
  }
]
